<?xml version="1.0" encoding="UTF-8" standalone="no"?>
<!DOCTYPE svg PUBLIC "-//W3C//DTD SVG 1.1//EN" "http://www.w3.org/Graphics/SVG/1.1/DTD/svg11.dtd">
<!-- Создано Microsoft Visio, экспорт SVG motor1.svg Page-1 -->
<svg xmlns="http://www.w3.org/2000/svg" xmlns:xlink="http://www.w3.org/1999/xlink" xmlns:ev="http://www.w3.org/2001/xml-events"
		xmlns:v="http://schemas.microsoft.com/visio/2003/SVGExtensions/" width="1.65354in" height="1.65354in"
		viewBox="0 0 119.055 119.055" xml:space="preserve" color-interpolation-filters="sRGB" class="st6">
	<v:documentProperties v:langID="1049" v:metric="true" v:viewMarkup="false">
		<v:userDefs>
			<v:ud v:nameU="msvNoAutoConnect" v:val="VT0(1):26"/>
			<v:ud v:nameU="msvConvertTheme"/>
		</v:userDefs>
	</v:documentProperties>

	<style type="text/css">
	<![CDATA[
		.st1 {stroke:#000000;stroke-linecap:round;stroke-linejoin:round;stroke-width:0.75}
		.st2 {fill:url(#grad0-9);stroke:#000000;stroke-linecap:round;stroke-linejoin:round;stroke-width:0.75}
		.st3 {fill:#000000;font-family:Calibri;font-size:0.666664em}
		.st4 {fill:#92d050;stroke:#000000;stroke-linecap:round;stroke-linejoin:round;stroke-width:0.75}
		.st5 {stroke:#000000;stroke-linecap:round;stroke-linejoin:round;stroke-width:1.5}
		.st6 {fill:none;fill-rule:evenodd;font-size:12px;overflow:visible;stroke-linecap:square;stroke-miterlimit:3}
	]]>
	</style>

	<defs id="Patterns_And_Gradients">
		<linearGradient id="grad0-4" x1="0" y1="0" x2="1" y2="0" gradientTransform="rotate(270 0.5 0.5)">
			<stop offset="0" stop-color="#f0f0f0" stop-opacity="1"/>
			<stop offset="1" stop-color="#ffffff" stop-opacity="1"/>
		</linearGradient>
		<linearGradient id="grad0-9" x1="0" y1="0" x2="1" y2="0" gradientTransform="rotate(270 0.5 0.5)">
			<stop offset="0" stop-color="#b0b0b0" stop-opacity="1"/>
			<stop offset="1" stop-color="#bfbfbf" stop-opacity="1"/>
		</linearGradient>
	</defs>
	<g v:mID="0" v:index="1" v:groupContext="foregroundPage">
		<title>Page-1</title>
		<v:pageProperties v:drawingScale="0.0393701" v:pageScale="0.0393701" v:drawingUnits="24" v:shadowOffsetX="8.50394"
				v:shadowOffsetY="-8.50394"/>
		<g id="shape23-1" v:mID="23" v:groupContext="shape" transform="translate(158.598,70.8661) rotate(90)">
			<title>Лист.23</title>
			<v:userDefs>
				<v:ud v:nameU="msvThemeColors" v:val="VT0(36):26"/>
				<v:ud v:nameU="msvThemeEffects" v:val="VT0(16):26"/>
			</v:userDefs>
			<path d="M0 119.06 L14.17 119.06" class="st1"/>
		</g>
		<g id="shape24-6" v:mID="24" v:groupContext="shape" transform="translate(25.3701,-5.66929)">
			<title>Лист.24</title>
			<v:userDefs>
				<v:ud v:nameU="msvThemeColors" v:val="VT0(36):26"/>
				<v:ud v:nameU="msvThemeEffects" v:val="VT0(16):26"/>
			</v:userDefs>
			<ellipse cx="14.1732" cy="104.882" rx="14.1732" ry="14.1732" class="st2"/>
		</g>
		<g id="shape26-10" v:mID="26" v:groupContext="shape" transform="translate(0.711986,-1.89894) rotate(-15)">
			<title>Лист.26</title>
			<desc>СД</desc>
			<v:userDefs>
				<v:ud v:nameU="msvThemeColors" v:val="VT0(36):26"/>
				<v:ud v:nameU="msvThemeEffects" v:val="VT0(16):26"/>
			</v:userDefs>
			<v:textBlock v:margins="rect(2,2,2,2)" v:tabSpace="42.5197"/>
			<v:textRect cx="11.3386" cy="107.717" width="22.68" height="22.6772"/>
			<ellipse cx="11.3386" cy="107.717" rx="11.3386" ry="11.3386" class="st2"/>
			<text x="6.63" y="110.12" class="st3" v:langID="1049"><v:paragraph v:horizAlign="1"/><v:tabList/>СД</text>		</g>
		<g id="shape27-14" v:mID="27" v:groupContext="shape" transform="translate(155.51,142.938) rotate(123.9)">
			<title>Лист.27</title>
			<v:userDefs>
				<v:ud v:nameU="msvThemeColors" v:val="VT0(36):26"/>
				<v:ud v:nameU="msvThemeEffects" v:val="VT0(16):26"/>
			</v:userDefs>
			<path d="M0 119.06 L14.3 119.06" class="st1"/>
		</g>
		<g id="shape28-18" v:mID="28" v:groupContext="shape" transform="translate(-39.894,43.937) rotate(-90)">
			<title>Лист.28</title>
			<path d="M1.87 119.06 L0 112.39 L1.82 105.3 L0 98.21 L1.82 91.13 L9.11 91.13 L10.93 98.21 L12.76 105.3 L12.76 112.39"
					class="st1"/>
		</g>
		<g id="shape29-21" v:mID="29" v:groupContext="shape" transform="translate(-73.7664,-18.4908) rotate(-45)">
			<title>Лист.29</title>
			<path d="M0 114.34 A15.7162 13.0481 -55.83 0 0 20.04 114.34" class="st1"/>
		</g>
		<g id="shape30-24" v:mID="30" v:groupContext="shape" transform="translate(5.20738,-32.6157) rotate(-45)">
			<title>Лист.30</title>
			<rect x="0" y="104.882" width="22.6772" height="14.1732" class="st4"/>
		</g>
		<g id="shape31-26" v:mID="31" v:groupContext="shape" transform="translate(7.08661,-99.2126)">
			<title>Лист.31</title>
			<rect x="0" y="104.882" width="22.6772" height="14.1732" class="st4"/>
		</g>
		<g id="shape32-28" v:mID="32" v:groupContext="shape" transform="translate(27.4053,-48.9738) rotate(-30)">
			<title>Лист.32</title>
			<rect x="0" y="104.882" width="22.6772" height="14.1732" class="st4"/>
		</g>
		<g id="shape33-30" v:mID="33" v:groupContext="shape" transform="translate(53.8537,-58.1743) rotate(-15)">
			<title>Лист.33</title>
			<rect x="0" y="104.882" width="22.6772" height="14.1732" class="st4"/>
		</g>
		<g id="shape34-32" v:mID="34" v:groupContext="shape" transform="translate(97.367,-17.6861) rotate(15)">
			<title>Лист.34</title>
			<rect x="0" y="104.882" width="22.6772" height="14.1732" class="st4"/>
		</g>
		<g id="shape35-34" v:mID="35" v:groupContext="shape" transform="translate(31.1811,-48.189)">
			<title>Лист.35</title>
			<rect x="0" y="102.047" width="17.0079" height="17.0079" class="st4"/>
		</g>
		<g id="shape36-36" v:mID="36" v:groupContext="shape" transform="translate(158.74,39.6843) rotate(90)">
			<title>Лист.36</title>
			<v:userDefs>
				<v:ud v:nameU="msvThemeColors" v:val="VT0(36):26"/>
				<v:ud v:nameU="msvThemeEffects" v:val="VT0(16):26"/>
			</v:userDefs>
			<path d="M0 119.06 L14.17 119.06" class="st1"/>
		</g>
		<g id="shape37-40" v:mID="37" v:groupContext="shape" transform="translate(46.7717,181.417) rotate(180)">
			<title>Лист.37</title>
			<v:userDefs>
				<v:ud v:nameU="msvThemeColors" v:val="VT0(36):26"/>
				<v:ud v:nameU="msvThemeEffects" v:val="VT0(16):26"/>
			</v:userDefs>
			<path d="M0 119.06 L13.89 119.06" class="st5"/>
		</g>
	</g>
</svg>
